// Jest Snapshot v1, https://goo.gl/fbAQLP

exports[`Form creator should create a templated form 1`] = `
<Component
  onSubmit={[MockFunction]}
>
  <MockFormOuter
    handleSubmit={[Function]}
  >
    <form
      onSubmit={[Function]}
    >
      <fields>
        <div />
      </fields>
    </form>
  </MockFormOuter>
</Component>
`;
